{
	"name": "Nifty",
	"description": null,
	"intents": [
		{
			"intentName": "ProvideInformationToUser",
			"intentVersion": "13"
		},
		{
			"intentName": "GreetUser",
			"intentVersion": "4"
		},
		{
			"intentName": "HighRiskInstrumentRecommender",
			"intentVersion": "11"
		},
		{
			"intentName": "InstrumentRecommender",
			"intentVersion": "11"
		},
		{
			"intentName": "EndUserChat",
			"intentVersion": "3"
		},
		{
			"intentName": "LowRiskInstrumentRecommender",
			"intentVersion": "13"
		}
	],
	"clarificationPrompt": {
		"messages": [
			{
				"contentType": "PlainText",
				"content": "Sorry, can you please repeat that?"
			}
		],
		"maxAttempts": 5,
		"responseCard": null
	},
	"abortStatement": {
		"messages": [
			{
				"contentType": "PlainText",
				"content": "Sorry, I could not understand. Goodbye."
			}
		],
		"responseCard": null
	},
	"status": "READY",
	"failureReason": null,
	"lastUpdatedDate": "2017-07-14T08:35:14.093Z",
	"createdDate": "2017-06-12T06:17:01.692Z",
	"idleSessionTTLInSeconds": 300,
	"voiceId": "0",
	"checksum": "28fc6929-0024-4d12-93b8-5d817c9e408b",
	"version": "$LATEST",
	"locale": "en-US",
	"childDirected": false,
	"dependencies": {
		"intents": [
			{
				"name": "HighRiskInstrumentRecommender",
				"description": null,
				"slots": [
					{
						"name": "duration",
						"description": null,
						"slotConstraint": "Required",
						"slotType": "AMAZON.NUMBER",
						"slotTypeVersion": null,
						"valueElicitationPrompt": {
							"messages": [
								{
									"contentType": "PlainText",
									"content": "For how many years would you like to invest this money? (E.g. 5)"
								}
							],
							"maxAttempts": 2,
							"responseCard": null
						},
						"priority": 4,
						"sampleUtterances": [],
						"responseCard": null
					},
					{
						"name": "fundID",
						"description": null,
						"slotConstraint": "Required",
						"slotType": "AMAZON.NUMBER",
						"slotTypeVersion": null,
						"valueElicitationPrompt": {
							"messages": [
								{
									"contentType": "PlainText",
									"content": "Please specify the Fund ID to view further details."
								}
							],
							"maxAttempts": 2,
							"responseCard": null
						},
						"priority": 6,
						"sampleUtterances": [],
						"responseCard": null
					},
					{
						"name": "phone",
						"description": null,
						"slotConstraint": "Optional",
						"slotType": "AMAZON.NUMBER",
						"slotTypeVersion": null,
						"valueElicitationPrompt": {
							"messages": [
								{
									"contentType": "PlainText",
									"content": "Please provide your contact number."
								}
							],
							"maxAttempts": 2,
							"responseCard": null
						},
						"priority": 8,
						"sampleUtterances": [],
						"responseCard": null
					},
					{
						"name": "payMode",
						"description": null,
						"slotConstraint": "Required",
						"slotType": "PayMode",
						"slotTypeVersion": "4",
						"valueElicitationPrompt": {
							"messages": [
								{
									"contentType": "PlainText",
									"content": "How would you like to invest this money? "
								}
							],
							"maxAttempts": 2,
							"responseCard": null
						},
						"priority": 3,
						"sampleUtterances": [],
						"responseCard": null
					},
					{
						"name": "highRiskInstrument",
						"description": null,
						"slotConstraint": "Optional",
						"slotType": "highRiskInstrument",
						"slotTypeVersion": "1",
						"valueElicitationPrompt": {
							"messages": [
								{
									"contentType": "PlainText",
									"content": "High Risk Instrument"
								}
							],
							"maxAttempts": 2,
							"responseCard": null
						},
						"priority": 9,
						"sampleUtterances": [],
						"responseCard": null
					},
					{
						"name": "corpus",
						"description": null,
						"slotConstraint": "Required",
						"slotType": "AMAZON.NUMBER",
						"slotTypeVersion": null,
						"valueElicitationPrompt": {
							"messages": [
								{
									"contentType": "PlainText",
									"content": "How much money would you like to invest annually? (E.g. 70000)"
								}
							],
							"maxAttempts": 2,
							"responseCard": null
						},
						"priority": 2,
						"sampleUtterances": [],
						"responseCard": null
					},
					{
						"name": "riskGrade",
						"description": null,
						"slotConstraint": "Required",
						"slotType": "RiskGrade",
						"slotTypeVersion": "2",
						"valueElicitationPrompt": {
							"messages": [
								{
									"contentType": "PlainText",
									"content": "What's your risk appetite?"
								}
							],
							"maxAttempts": 2,
							"responseCard": null
						},
						"priority": 5,
						"sampleUtterances": [],
						"responseCard": null
					},
					{
						"name": "userAge",
						"description": null,
						"slotConstraint": "Required",
						"slotType": "AMAZON.NUMBER",
						"slotTypeVersion": null,
						"valueElicitationPrompt": {
							"messages": [
								{
									"contentType": "PlainText",
									"content": "Sure! Before providing relevant fund details, I need to ask you a few questions. What is your age?"
								}
							],
							"maxAttempts": 2,
							"responseCard": null
						},
						"priority": 1,
						"sampleUtterances": [],
						"responseCard": null
					},
					{
						"name": "email",
						"description": null,
						"slotConstraint": "Optional",
						"slotType": "emailAddress",
						"slotTypeVersion": "1",
						"valueElicitationPrompt": {
							"messages": [
								{
									"contentType": "PlainText",
									"content": "Please provide your email address."
								}
							],
							"maxAttempts": 2,
							"responseCard": null
						},
						"priority": 7,
						"sampleUtterances": [],
						"responseCard": null
					}
				],
				"sampleUtterances": [
					"want to invest in {highRiskInstrument}",
					"Show me top {highRiskInstrument}",
					"show me best {highRiskInstrument}"
				],
				"dialogCodeHook": {
					"uri": "arn:aws:lambda:us-east-1:255247600142:function:TaxSavingLambda-dev-taxHelper",
					"messageVersion": "1.0"
				},
				"fulfillmentActivity": {
					"type": "ReturnIntent"
				},
				"parentIntentSignature": null,
				"lastUpdatedDate": "2017-07-14T08:25:10.935Z",
				"createdDate": "2017-07-14T08:25:10.935Z",
				"version": "11",
				"checksum": "a166d75d-b831-4a1e-99b9-49cc732aebf8"
			},
			{
				"name": "ProvideInformationToUser",
				"description": null,
				"slots": [
					{
						"name": "advantages",
						"description": null,
						"slotConstraint": "Optional",
						"slotType": "benefits",
						"slotTypeVersion": "2",
						"valueElicitationPrompt": {
							"messages": [
								{
									"contentType": "PlainText",
									"content": "Advantages"
								}
							],
							"maxAttempts": 2,
							"responseCard": null
						},
						"priority": 5,
						"sampleUtterances": [],
						"responseCard": null
					},
					{
						"name": "rate",
						"description": null,
						"slotConstraint": "Optional",
						"slotType": "rate",
						"slotTypeVersion": "1",
						"valueElicitationPrompt": {
							"messages": [
								{
									"contentType": "PlainText",
									"content": "Rate"
								}
							],
							"maxAttempts": 2,
							"responseCard": null
						},
						"priority": 21,
						"sampleUtterances": [],
						"responseCard": null
					},
					{
						"name": "lockIn",
						"description": null,
						"slotConstraint": "Optional",
						"slotType": "lockIn",
						"slotTypeVersion": "1",
						"valueElicitationPrompt": {
							"messages": [
								{
									"contentType": "PlainText",
									"content": "Lock-In"
								}
							],
							"maxAttempts": 2,
							"responseCard": null
						},
						"priority": 10,
						"sampleUtterances": [],
						"responseCard": null
					},
					{
						"name": "taxBenefits",
						"description": null,
						"slotConstraint": "Optional",
						"slotType": "taxBenefits",
						"slotTypeVersion": "1",
						"valueElicitationPrompt": {
							"messages": [
								{
									"contentType": "PlainText",
									"content": "Tax Benefits"
								}
							],
							"maxAttempts": 2,
							"responseCard": null
						},
						"priority": 9,
						"sampleUtterances": [],
						"responseCard": null
					},
					{
						"name": "maximum",
						"description": null,
						"slotConstraint": "Optional",
						"slotType": "maximum",
						"slotTypeVersion": "1",
						"valueElicitationPrompt": {
							"messages": [
								{
									"contentType": "PlainText",
									"content": "Maximum"
								}
							],
							"maxAttempts": 2,
							"responseCard": null
						},
						"priority": 13,
						"sampleUtterances": [],
						"responseCard": null
					},
					{
						"name": "eligibility",
						"description": null,
						"slotConstraint": "Optional",
						"slotType": "eligibility",
						"slotTypeVersion": "1",
						"valueElicitationPrompt": {
							"messages": [
								{
									"contentType": "PlainText",
									"content": "Eligibility"
								}
							],
							"maxAttempts": 2,
							"responseCard": null
						},
						"priority": 15,
						"sampleUtterances": [],
						"responseCard": null
					},
					{
						"name": "risk",
						"description": null,
						"slotConstraint": "Optional",
						"slotType": "risk",
						"slotTypeVersion": "1",
						"valueElicitationPrompt": {
							"messages": [
								{
									"contentType": "PlainText",
									"content": "Risk"
								}
							],
							"maxAttempts": 2,
							"responseCard": null
						},
						"priority": 8,
						"sampleUtterances": [],
						"responseCard": null
					},
					{
						"name": "instrument",
						"description": null,
						"slotConstraint": "Optional",
						"slotType": "instrument",
						"slotTypeVersion": "2",
						"valueElicitationPrompt": {
							"messages": [
								{
									"contentType": "PlainText",
									"content": "Instrument"
								}
							],
							"maxAttempts": 2,
							"responseCard": null
						},
						"priority": 1,
						"sampleUtterances": [],
						"responseCard": null
					},
					{
						"name": "procedure",
						"description": null,
						"slotConstraint": "Optional",
						"slotType": "procedure",
						"slotTypeVersion": "1",
						"valueElicitationPrompt": {
							"messages": [
								{
									"contentType": "PlainText",
									"content": "Procedure"
								}
							],
							"maxAttempts": 2,
							"responseCard": null
						},
						"priority": 7,
						"sampleUtterances": [],
						"responseCard": null
					},
					{
						"name": "keyFeatures",
						"description": null,
						"slotConstraint": "Optional",
						"slotType": "keyFeatures",
						"slotTypeVersion": "1",
						"valueElicitationPrompt": {
							"messages": [
								{
									"contentType": "PlainText",
									"content": "Key Features"
								}
							],
							"maxAttempts": 2,
							"responseCard": null
						},
						"priority": 4,
						"sampleUtterances": [],
						"responseCard": null
					},
					{
						"name": "fullForm",
						"description": null,
						"slotConstraint": "Optional",
						"slotType": "fullForm",
						"slotTypeVersion": "1",
						"valueElicitationPrompt": {
							"messages": [
								{
									"contentType": "PlainText",
									"content": "Full Form"
								}
							],
							"maxAttempts": 2,
							"responseCard": null
						},
						"priority": 2,
						"sampleUtterances": [],
						"responseCard": null
					},
					{
						"name": "minimum",
						"description": null,
						"slotConstraint": "Optional",
						"slotType": "minimum",
						"slotTypeVersion": "1",
						"valueElicitationPrompt": {
							"messages": [
								{
									"contentType": "PlainText",
									"content": "Minimum"
								}
							],
							"maxAttempts": 2,
							"responseCard": null
						},
						"priority": 12,
						"sampleUtterances": [],
						"responseCard": null
					},
					{
						"name": "tenure",
						"description": null,
						"slotConstraint": "Optional",
						"slotType": "tenure",
						"slotTypeVersion": "1",
						"valueElicitationPrompt": {
							"messages": [
								{
									"contentType": "PlainText",
									"content": "Tenure"
								}
							],
							"maxAttempts": 2,
							"responseCard": null
						},
						"priority": 11,
						"sampleUtterances": [],
						"responseCard": null
					}
				],
				"sampleUtterances": [
					"What does {instrument} {fullForm}",
					"What is the {fullForm} of {instrument}",
					"What are the {keyFeatures} of {instrument}",
					"What are the {advantages} of investing in a {instrument}",
					"What are the {advantages} of {instrument}",
					"{advantages} should I invest in {instrument}",
					"{advantages} {instrument}",
					"{advantages} invest in an {instrument}",
					"How can I {procedure} an {instrument}",
					"What is the {procedure} to open an {instrument}",
					"Is {instrument} {risk}",
					"Is investment in {instrument} {risk}",
					"What are the {taxBenefits} of {instrument}",
					"What is the {lockIn} period for {instrument}",
					"For how long is my money {lockIn} in {instrument}",
					"What is the {tenure} of a {instrument}",
					"What is the {instrument} investment {tenure}",
					"Do I have to deposit a {minimum} amount every year in an {instrument}",
					"What is the {minimum} deposit required for opening an {instrument}",
					"What is the {maximum} amount I can add to an {instrument}",
					"What is the {maximum} amount I can deposit in an {instrument}",
					"{eligibility} in {instrument}",
					"Who is {eligibility} to open an {instrument}",
					"What is the {eligibility} criterion to open a {instrument}",
					"What is the current interest {rate} on {instrument}",
					"What is the interest {rate} of {instrument}",
					"what is {instrument}",
					"tell me about {instrument}"
				],
				"fulfillmentActivity": {
					"type": "CodeHook",
					"codeHook": {
						"uri": "arn:aws:lambda:us-east-1:255247600142:function:TaxSavingLambda-dev-taxHelper",
						"messageVersion": "1.0"
					}
				},
				"parentIntentSignature": null,
				"lastUpdatedDate": "2017-07-14T08:34:50.113Z",
				"createdDate": "2017-07-14T08:34:50.113Z",
				"version": "13",
				"checksum": "0c407389-9939-49e1-ab0d-301342e1836b"
			},
			{
				"name": "GreetUser",
				"description": null,
				"slots": [],
				"sampleUtterances": [
					"Hi",
					"Hello",
					"Howdy",
					"What's up",
					"What do you do",
					"Hi Bot",
					"Hello Bot",
					"Hi Nifty",
					"Hello Nifty",
					"Nifty",
					"Who are you",
					"Hey",
					"hey nifty",
					"how can you help",
					"namaste",
					"ola",
					"hola"
				],
				"fulfillmentActivity": {
					"type": "CodeHook",
					"codeHook": {
						"uri": "arn:aws:lambda:us-east-1:255247600142:function:TaxSavingLambda-dev-taxHelper",
						"messageVersion": "1.0"
					}
				},
				"parentIntentSignature": null,
				"lastUpdatedDate": "2017-07-14T08:25:10.740Z",
				"createdDate": "2017-07-14T08:25:10.740Z",
				"version": "4",
				"checksum": "caeca852-afa9-47f3-bde6-54bdd828edb8"
			},
			{
				"name": "EndUserChat",
				"description": null,
				"slots": [],
				"sampleUtterances": [
					"Goodbye",
					"Bye",
					"Cancel",
					"Quit",
					"catch you later",
					"thanks",
					"thx",
					"thnx",
					"end"
				],
				"fulfillmentActivity": {
					"type": "CodeHook",
					"codeHook": {
						"uri": "arn:aws:lambda:us-east-1:255247600142:function:TaxSavingLambda-dev-taxHelper",
						"messageVersion": "1.0"
					}
				},
				"parentIntentSignature": null,
				"lastUpdatedDate": "2017-07-12T06:57:25.873Z",
				"createdDate": "2017-07-12T06:57:25.873Z",
				"version": "3",
				"checksum": "ed3508ac-231d-4eca-b30d-7150b553d3ef"
			},
			{
				"name": "LowRiskInstrumentRecommender",
				"description": null,
				"slots": [
					{
						"name": "phone",
						"description": null,
						"slotConstraint": "Optional",
						"slotType": "AMAZON.NUMBER",
						"slotTypeVersion": null,
						"valueElicitationPrompt": {
							"messages": [
								{
									"contentType": "PlainText",
									"content": "Please provide your contact number."
								}
							],
							"maxAttempts": 2,
							"responseCard": null
						},
						"priority": 6,
						"sampleUtterances": [],
						"responseCard": null
					},
					{
						"name": "lowRiskInstrument",
						"description": null,
						"slotConstraint": "Optional",
						"slotType": "lowRiskInstrument",
						"slotTypeVersion": "2",
						"valueElicitationPrompt": {
							"messages": [
								{
									"contentType": "PlainText",
									"content": "Low Risk Instrument"
								}
							],
							"maxAttempts": 2,
							"responseCard": null
						},
						"priority": 2,
						"sampleUtterances": [],
						"responseCard": null
					},
					{
						"name": "corpus",
						"description": null,
						"slotConstraint": "Required",
						"slotType": "AMAZON.NUMBER",
						"slotTypeVersion": null,
						"valueElicitationPrompt": {
							"messages": [
								{
									"contentType": "PlainText",
									"content": "How much money would you like to invest annually? (E.g. 70000)"
								}
							],
							"maxAttempts": 2,
							"responseCard": null
						},
						"priority": 4,
						"sampleUtterances": [],
						"responseCard": null
					},
					{
						"name": "userAge",
						"description": null,
						"slotConstraint": "Required",
						"slotType": "AMAZON.NUMBER",
						"slotTypeVersion": null,
						"valueElicitationPrompt": {
							"messages": [
								{
									"contentType": "PlainText",
									"content": "Great! Before providing relevant instrument details, I need to ask you a few questions. What is your age?"
								}
							],
							"maxAttempts": 2,
							"responseCard": "{\"version\":1,\"contentType\":\"application/vnd.amazonaws.card.generic\"}"
						},
						"priority": 3,
						"sampleUtterances": [],
						"responseCard": null
					},
					{
						"name": "email",
						"description": null,
						"slotConstraint": "Optional",
						"slotType": "emailAddress",
						"slotTypeVersion": "1",
						"valueElicitationPrompt": {
							"messages": [
								{
									"contentType": "PlainText",
									"content": "Please provide your email address."
								}
							],
							"maxAttempts": 2,
							"responseCard": null
						},
						"priority": 5,
						"sampleUtterances": [],
						"responseCard": null
					}
				],
				"sampleUtterances": [
					"want to invest in {lowRiskInstrument}",
					"how can I invest in {lowRiskInstrument}"
				],
				"dialogCodeHook": {
					"uri": "arn:aws:lambda:us-east-1:255247600142:function:TaxSavingLambda-dev-taxHelper",
					"messageVersion": "1.0"
				},
				"fulfillmentActivity": {
					"type": "ReturnIntent"
				},
				"parentIntentSignature": null,
				"lastUpdatedDate": "2017-07-14T08:34:50.221Z",
				"createdDate": "2017-07-14T08:34:50.221Z",
				"version": "13",
				"checksum": "2f773f82-2720-4290-9b17-8d43cac27794"
			},
			{
				"name": "InstrumentRecommender",
				"description": null,
				"slots": [
					{
						"name": "duration",
						"description": null,
						"slotConstraint": "Required",
						"slotType": "AMAZON.NUMBER",
						"slotTypeVersion": null,
						"valueElicitationPrompt": {
							"messages": [
								{
									"contentType": "PlainText",
									"content": "For how many years would you like to invest this money? (E.g. 5)"
								}
							],
							"maxAttempts": 2,
							"responseCard": null
						},
						"priority": 4,
						"sampleUtterances": [],
						"responseCard": null
					},
					{
						"name": "fundID",
						"description": null,
						"slotConstraint": "Optional",
						"slotType": "AMAZON.NUMBER",
						"slotTypeVersion": null,
						"valueElicitationPrompt": {
							"messages": [
								{
									"contentType": "PlainText",
									"content": "fund ID"
								}
							],
							"maxAttempts": 2,
							"responseCard": null
						},
						"priority": 7,
						"sampleUtterances": [],
						"responseCard": null
					},
					{
						"name": "phone",
						"description": null,
						"slotConstraint": "Optional",
						"slotType": "AMAZON.NUMBER",
						"slotTypeVersion": null,
						"valueElicitationPrompt": {
							"messages": [
								{
									"contentType": "PlainText",
									"content": "Please provide your contact number."
								}
							],
							"maxAttempts": 2,
							"responseCard": null
						},
						"priority": 10,
						"sampleUtterances": [],
						"responseCard": null
					},
					{
						"name": "payMode",
						"description": null,
						"slotConstraint": "Required",
						"slotType": "PayMode",
						"slotTypeVersion": "4",
						"valueElicitationPrompt": {
							"messages": [
								{
									"contentType": "PlainText",
									"content": "How would you like to invest this money? "
								}
							],
							"maxAttempts": 2,
							"responseCard": null
						},
						"priority": 3,
						"sampleUtterances": [],
						"responseCard": null
					},
					{
						"name": "lowRiskInstrument",
						"description": null,
						"slotConstraint": "Optional",
						"slotType": "lowRiskInstrument",
						"slotTypeVersion": "2",
						"valueElicitationPrompt": {
							"messages": [
								{
									"contentType": "PlainText",
									"content": "low risk instrument."
								}
							],
							"maxAttempts": 2,
							"responseCard": null
						},
						"priority": 8,
						"sampleUtterances": [],
						"responseCard": null
					},
					{
						"name": "corpus",
						"description": null,
						"slotConstraint": "Required",
						"slotType": "AMAZON.NUMBER",
						"slotTypeVersion": null,
						"valueElicitationPrompt": {
							"messages": [
								{
									"contentType": "PlainText",
									"content": "How much money would you like to invest annually? (E.g. 70000)"
								}
							],
							"maxAttempts": 2,
							"responseCard": null
						},
						"priority": 2,
						"sampleUtterances": [],
						"responseCard": null
					},
					{
						"name": "riskGrade",
						"description": null,
						"slotConstraint": "Optional",
						"slotType": "RiskGrade",
						"slotTypeVersion": "2",
						"valueElicitationPrompt": {
							"messages": [
								{
									"contentType": "PlainText",
									"content": "what is risk grade?"
								}
							],
							"maxAttempts": 2,
							"responseCard": null
						},
						"priority": 6,
						"sampleUtterances": [],
						"responseCard": null
					},
					{
						"name": "userAge",
						"description": null,
						"slotConstraint": "Required",
						"slotType": "AMAZON.NUMBER",
						"slotTypeVersion": null,
						"valueElicitationPrompt": {
							"messages": [
								{
									"contentType": "PlainText",
									"content": "Sure! Before suggesting an appropriate financial instrument, I need to ask you a few questions. What is your age?"
								}
							],
							"maxAttempts": 2,
							"responseCard": null
						},
						"priority": 1,
						"sampleUtterances": [],
						"responseCard": null
					},
					{
						"name": "riskFluctuation",
						"description": null,
						"slotConstraint": "Required",
						"slotType": "riskFluctuation",
						"slotTypeVersion": "1",
						"valueElicitationPrompt": {
							"messages": [
								{
									"contentType": "PlainText",
									"content": "Which of the following best describes the amount of risk you can tolerate in your investment?"
								}
							],
							"maxAttempts": 2,
							"responseCard": null
						},
						"priority": 5,
						"sampleUtterances": [],
						"responseCard": null
					},
					{
						"name": "email",
						"description": null,
						"slotConstraint": "Optional",
						"slotType": "emailAddress",
						"slotTypeVersion": "1",
						"valueElicitationPrompt": {
							"messages": [
								{
									"contentType": "PlainText",
									"content": "Please provide your email address."
								}
							],
							"maxAttempts": 2,
							"responseCard": null
						},
						"priority": 9,
						"sampleUtterances": [],
						"responseCard": null
					}
				],
				"sampleUtterances": [
					"want to invest.",
					"help me choose.",
					"where should I invest",
					"where to invest",
					"suggest me."
				],
				"dialogCodeHook": {
					"uri": "arn:aws:lambda:us-east-1:255247600142:function:TaxSavingLambda-dev-taxHelper",
					"messageVersion": "1.0"
				},
				"fulfillmentActivity": {
					"type": "ReturnIntent"
				},
				"parentIntentSignature": null,
				"lastUpdatedDate": "2017-07-14T08:25:10.840Z",
				"createdDate": "2017-07-14T08:25:10.840Z",
				"version": "11",
				"checksum": "e406ea82-d850-48a9-b939-18e69efd7b67"
			}
		],
		"slotTypes": [
			{
				"name": "maximum",
				"description": "Maximum deposit amount of the Instrument",
				"enumerationValues": [
					{
						"value": "maximum"
					}
				],
				"lastUpdatedDate": "2017-07-03T05:26:32.051Z",
				"createdDate": "2017-07-03T05:26:32.051Z",
				"version": "1",
				"checksum": null
			},
			{
				"name": "PayMode",
				"description": "intent to pay in instalments or lump sum",
				"enumerationValues": [
					{
						"value": "Instalments"
					},
					{
						"value": "Lump Sum"
					}
				],
				"lastUpdatedDate": "2017-07-12T06:14:31.451Z",
				"createdDate": "2017-07-12T06:14:31.451Z",
				"version": "4",
				"checksum": null
			},
			{
				"name": "emailAddress",
				"description": "email address of user",
				"enumerationValues": [
					{
						"value": "abc@yahoo.com"
					},
					{
						"value": "abc@gmail.com"
					}
				],
				"lastUpdatedDate": "2017-07-02T17:34:22.048Z",
				"createdDate": "2017-07-02T17:34:22.048Z",
				"version": "1",
				"checksum": null
			},
			{
				"name": "RiskGrade",
				"description": "risk appetite of user",
				"enumerationValues": [
					{
						"value": "High"
					},
					{
						"value": "Below Average"
					},
					{
						"value": "Low"
					},
					{
						"value": "Average"
					},
					{
						"value": "Above Average"
					}
				],
				"lastUpdatedDate": "2017-06-13T09:31:54.815Z",
				"createdDate": "2017-06-13T09:31:54.815Z",
				"version": "2",
				"checksum": null
			},
			{
				"name": "taxBenefits",
				"description": "Tax Benefits of Instrument",
				"enumerationValues": [
					{
						"value": "tax benefits"
					}
				],
				"lastUpdatedDate": "2017-07-03T05:18:23.289Z",
				"createdDate": "2017-07-03T05:18:23.289Z",
				"version": "1",
				"checksum": null
			},
			{
				"name": "RiskGrade",
				"description": "risk appetite of user",
				"enumerationValues": [
					{
						"value": "High"
					},
					{
						"value": "Below Average"
					},
					{
						"value": "Low"
					},
					{
						"value": "Average"
					},
					{
						"value": "Above Average"
					}
				],
				"lastUpdatedDate": "2017-06-13T09:31:54.815Z",
				"createdDate": "2017-06-13T09:31:54.815Z",
				"version": "2",
				"checksum": null
			},
			{
				"name": "highRiskInstrument",
				"description": "High Risk Instruments",
				"enumerationValues": [
					{
						"value": "ELSS"
					},
					{
						"value": "elss"
					}
				],
				"lastUpdatedDate": "2017-07-04T11:26:02.443Z",
				"createdDate": "2017-07-04T11:26:02.443Z",
				"version": "1",
				"checksum": null
			},
			{
				"name": "PayMode",
				"description": "intent to pay in instalments or lump sum",
				"enumerationValues": [
					{
						"value": "Instalments"
					},
					{
						"value": "Lump Sum"
					}
				],
				"lastUpdatedDate": "2017-07-12T06:14:31.451Z",
				"createdDate": "2017-07-12T06:14:31.451Z",
				"version": "4",
				"checksum": null
			},
			{
				"name": "rate",
				"description": "Interest Rate against Instrument.",
				"enumerationValues": [
					{
						"value": "interest rate"
					}
				],
				"lastUpdatedDate": "2017-07-03T07:41:27.213Z",
				"createdDate": "2017-07-03T07:41:27.213Z",
				"version": "1",
				"checksum": null
			},
			{
				"name": "riskFluctuation",
				"description": "Risk Fluctuation",
				"enumerationValues": [
					{
						"value": "Safety Oriented"
					},
					{
						"value": "Moderate"
					},
					{
						"value": "Aggressive"
					}
				],
				"lastUpdatedDate": "2017-07-04T05:18:42.757Z",
				"createdDate": "2017-07-04T05:18:42.757Z",
				"version": "1",
				"checksum": null
			},
			{
				"name": "eligibility",
				"description": "Eligibility for opening an Instrument's account",
				"enumerationValues": [
					{
						"value": "eligibility"
					},
					{
						"value": "procedure"
					},
					{
						"value": "open"
					}
				],
				"lastUpdatedDate": "2017-07-03T05:29:03.113Z",
				"createdDate": "2017-07-03T05:29:03.113Z",
				"version": "1",
				"checksum": null
			},
			{
				"name": "minimum",
				"description": "Minimum deposit amount for the Instrument",
				"enumerationValues": [
					{
						"value": "minimum"
					}
				],
				"lastUpdatedDate": "2017-07-03T05:24:41.153Z",
				"createdDate": "2017-07-03T05:24:41.153Z",
				"version": "1",
				"checksum": null
			},
			{
				"name": "lowRiskInstrument",
				"description": null,
				"enumerationValues": [
					{
						"value": "PPF"
					},
					{
						"value": "ppf"
					},
					{
						"value": "TSFD"
					},
					{
						"value": "tsfd"
					},
					{
						"value": "NSC"
					},
					{
						"value": "nsc"
					}
				],
				"lastUpdatedDate": "2017-07-04T11:41:34.166Z",
				"createdDate": "2017-07-04T11:41:34.166Z",
				"version": "2",
				"checksum": null
			},
			{
				"name": "emailAddress",
				"description": "email address of user",
				"enumerationValues": [
					{
						"value": "abc@yahoo.com"
					},
					{
						"value": "abc@gmail.com"
					}
				],
				"lastUpdatedDate": "2017-07-02T17:34:22.048Z",
				"createdDate": "2017-07-02T17:34:22.048Z",
				"version": "1",
				"checksum": null
			},
			{
				"name": "fullForm",
				"description": "Full Form of Instrument",
				"enumerationValues": [
					{
						"value": "full-form"
					},
					{
						"value": "stand for"
					},
					{
						"value": "full form"
					}
				],
				"lastUpdatedDate": "2017-07-03T04:12:27.675Z",
				"createdDate": "2017-07-03T04:12:27.675Z",
				"version": "1",
				"checksum": null
			},
			{
				"name": "tenure",
				"description": "Tenure of the Instrument",
				"enumerationValues": [
					{
						"value": "tenure"
					}
				],
				"lastUpdatedDate": "2017-07-03T05:23:41.621Z",
				"createdDate": "2017-07-03T05:23:41.621Z",
				"version": "1",
				"checksum": null
			},
			{
				"name": "instrument",
				"description": "Available Instrument Types",
				"enumerationValues": [
					{
						"value": "ELSS"
					},
					{
						"value": "PPF"
					},
					{
						"value": "ppf"
					},
					{
						"value": "elss"
					},
					{
						"value": "TSFD"
					},
					{
						"value": "tsfd"
					},
					{
						"value": "NSC"
					},
					{
						"value": "nsc"
					}
				],
				"lastUpdatedDate": "2017-07-12T10:06:48.777Z",
				"createdDate": "2017-07-12T10:06:48.777Z",
				"version": "2",
				"checksum": null
			},
			{
				"name": "benefits",
				"description": "benefits of investing in a particular fund",
				"enumerationValues": [
					{
						"value": "benefits"
					},
					{
						"value": "advantages"
					},
					{
						"value": "why"
					}
				],
				"lastUpdatedDate": "2017-07-12T11:10:04.173Z",
				"createdDate": "2017-07-12T11:10:04.173Z",
				"version": "2",
				"checksum": null
			},
			{
				"name": "lockIn",
				"description": "Lock-in period of Instrument",
				"enumerationValues": [
					{
						"value": "lock in"
					},
					{
						"value": "lock-in"
					}
				],
				"lastUpdatedDate": "2017-07-03T05:22:29.162Z",
				"createdDate": "2017-07-03T05:22:29.162Z",
				"version": "1",
				"checksum": null
			},
			{
				"name": "keyFeatures",
				"description": "Key / Main features of Instrument",
				"enumerationValues": [
					{
						"value": "significant features"
					},
					{
						"value": "main features"
					},
					{
						"value": "key features"
					}
				],
				"lastUpdatedDate": "2017-07-03T04:28:09.696Z",
				"createdDate": "2017-07-03T04:28:09.696Z",
				"version": "1",
				"checksum": null
			},
			{
				"name": "lowRiskInstrument",
				"description": null,
				"enumerationValues": [
					{
						"value": "PPF"
					},
					{
						"value": "ppf"
					},
					{
						"value": "TSFD"
					},
					{
						"value": "tsfd"
					},
					{
						"value": "NSC"
					},
					{
						"value": "nsc"
					}
				],
				"lastUpdatedDate": "2017-07-04T11:41:34.166Z",
				"createdDate": "2017-07-04T11:41:34.166Z",
				"version": "2",
				"checksum": null
			},
			{
				"name": "emailAddress",
				"description": "email address of user",
				"enumerationValues": [
					{
						"value": "abc@yahoo.com"
					},
					{
						"value": "abc@gmail.com"
					}
				],
				"lastUpdatedDate": "2017-07-02T17:34:22.048Z",
				"createdDate": "2017-07-02T17:34:22.048Z",
				"version": "1",
				"checksum": null
			},
			{
				"name": "procedure",
				"description": "Procedure to invest in Instrument",
				"enumerationValues": [
					{
						"value": "procedure"
					},
					{
						"value": "open"
					}
				],
				"lastUpdatedDate": "2017-07-03T04:58:39.523Z",
				"createdDate": "2017-07-03T04:58:39.523Z",
				"version": "1",
				"checksum": null
			},
			{
				"name": "risk",
				"description": "Risk associated with the Instrument",
				"enumerationValues": [
					{
						"value": "safe"
					},
					{
						"value": "risky"
					}
				],
				"lastUpdatedDate": "2017-07-03T04:59:32.359Z",
				"createdDate": "2017-07-03T04:59:32.359Z",
				"version": "1",
				"checksum": null
			}
		]
	}
}